{
  "success": true,
  "message": "查询成功",
  "data": {
    "total": 1067,
    "pages": 107,
    "page": 1,
    "rows": [
      {
        "note": "Remote Service [/sec/user/secKey] does not exist!",
        "level": "WARN",
        "module": "Api",
        "ip": "192.168.1.129",
        "location": "com.bocloud.remote.service.http.core.ServiceFactoryImpl.build(ServiceFactoryImpl.java:45)",
        "id": 15939,
        "time": "2016-05-23 21:20:21",
        "thread": "http-nio-8888-exec-3",
        "category": "com.bocloud.remote.service.http.core.ServiceFactoryImpl"
      },
      {
        "note": "Remote service does not exist! Invoke inner service!",
        "level": "WARN",
        "module": "Api",
        "ip": "192.168.1.129",
        "location": "com.bocloud.boc.core.security.intf.impl.UserServiceCoreImpl.getSecKey(UserServiceCoreImpl.java:136)",
        "id": 15940,
        "time": "2016-05-23 21:20:21",
        "thread": "http-nio-8888-exec-3",
        "category": "com.bocloud.boc.core.security.intf.impl.UserServiceCoreImpl"
      },
      {
        "note": "Remote Service [log/audit/create] does not exist!",
        "level": "WARN",
        "module": "Api",
        "ip": "192.168.1.129",
        "location": "com.bocloud.remote.service.http.core.ServiceFactoryImpl.build(ServiceFactoryImpl.java:45)",
        "id": 15941,
        "time": "2016-05-23 21:20:21",
        "thread": "http-nio-8888-exec-3",
        "category": "com.bocloud.remote.service.http.core.ServiceFactoryImpl"
      },
      {
        "note": "Remote service does not exist! Invoke inner service!",
        "level": "WARN",
        "module": "Api",
        "ip": "192.168.1.129",
        "location": "com.bocloud.boc.core.log.intf.impl.LogServiceCoreImpl.createLog(LogServiceCoreImpl.java:89)",
        "id": 15942,
        "time": "2016-05-23 21:20:21",
        "thread": "http-nio-8888-exec-3",
        "category": "com.bocloud.boc.core.log.intf.impl.LogServiceCoreImpl"
      },
      {
        "note": "Remote Service [/mirror/image/2/whs] does not exist!",
        "level": "WARN",
        "module": "Api",
        "ip": "192.168.1.129",
        "location": "com.bocloud.remote.service.http.core.ServiceFactoryImpl.build(ServiceFactoryImpl.java:45)",
        "id": 15943,
        "time": "2016-05-23 21:20:21",
        "thread": "http-nio-8888-exec-3",
        "category": "com.bocloud.remote.service.http.core.ServiceFactoryImpl"
      },
      {
        "note": "Remote service does not exist! Invoke inner service!",
        "level": "WARN",
        "module": "Api",
        "ip": "192.168.1.129",
        "location": "com.bocloud.boc.core.mirror.intf.impl.ImageServiceCoreImpl.listWhs(ImageServiceCoreImpl.java:228)",
        "id": 15944,
        "time": "2016-05-23 21:20:21",
        "thread": "http-nio-8888-exec-3",
        "category": "com.bocloud.boc.core.mirror.intf.impl.ImageServiceCoreImpl"
      },
      {
        "note": "Remote Service [/sec/user/secKey] does not exist!",
        "level": "WARN",
        "module": "Api",
        "ip": "192.168.1.129",
        "location": "com.bocloud.remote.service.http.core.ServiceFactoryImpl.build(ServiceFactoryImpl.java:45)",
        "id": 15945,
        "time": "2016-05-23 21:20:21",
        "thread": "http-nio-8888-exec-4",
        "category": "com.bocloud.remote.service.http.core.ServiceFactoryImpl"
      },
      {
        "note": "Remote service does not exist! Invoke inner service!",
        "level": "WARN",
        "module": "Api",
        "ip": "192.168.1.129",
        "location": "com.bocloud.boc.core.security.intf.impl.UserServiceCoreImpl.getSecKey(UserServiceCoreImpl.java:136)",
        "id": 15946,
        "time": "2016-05-23 21:20:21",
        "thread": "http-nio-8888-exec-4",
        "category": "com.bocloud.boc.core.security.intf.impl.UserServiceCoreImpl"
      },
      {
        "note": "Remote Service [log/audit/create] does not exist!",
        "level": "WARN",
        "module": "Api",
        "ip": "192.168.1.129",
        "location": "com.bocloud.remote.service.http.core.ServiceFactoryImpl.build(ServiceFactoryImpl.java:45)",
        "id": 15947,
        "time": "2016-05-23 21:20:21",
        "thread": "http-nio-8888-exec-4",
        "category": "com.bocloud.remote.service.http.core.ServiceFactoryImpl"
      },
      {
        "note": "Remote service does not exist! Invoke inner service!",
        "level": "WARN",
        "module": "Api",
        "ip": "192.168.1.129",
        "location": "com.bocloud.boc.core.log.intf.impl.LogServiceCoreImpl.createLog(LogServiceCoreImpl.java:89)",
        "id": 15948,
        "time": "2016-05-23 21:20:21",
        "thread": "http-nio-8888-exec-4",
        "category": "com.bocloud.boc.core.log.intf.impl.LogServiceCoreImpl"
      }
    ]
  },
  "status": null,
  "solution": null
}