{
    "success":true,
    "message":"云资源计量成功",
   "data": {
				"total": 200,
				"pages": 4,
				"page": 5,
				"rows": [{
					"diskPer": 0,
					"targetId": 6,
					"instanceNum": 0,
					"instanceName": null,
					"cpuPer": 0,
					"fee": 0,
					"diskDrp": 0,
					"memoryDrp": 0,
					"type": 3,
					"vendorName": null,
					"cpuNum": 0,
					"isDeleted": false,
					"memoryPer": 0,
					"name": "运维一部",
					"meterDate": "2016-10-31 19:16:36",
					"id": 366
				}, {
					"diskPer": 0,
					"targetId": 6,
					"instanceNum": 0,
					"instanceName": null,
					"cpuPer": 0,
					"fee": 0,
					"diskDrp": 0,
					"memoryDrp": 0,
					"type": 3,
					"vendorName": null,
					"cpuNum": 0,
					"isDeleted": false,
					"memoryPer": 0,
					"name": "运维二部",
					"meterDate": "2016-10-30 20:16:36",
					"id": 367
				}, {
					"diskPer": 0,
					"targetId": 6,
					"instanceNum": 0,
					"instanceName": null,
					"cpuPer": 0,
					"fee": 0,
					"diskDrp": 0,
					"memoryDrp": 0,
					"type": 3,
					"vendorName": null,
					"cpuNum": 0,
					"isDeleted": false,
					"memoryPer": 0,
					"name": "运维二部",
					"meterDate": "2016-10-30 20:16:36",
					"id": 367
				}]
			},
	  "code" : 1111,
	  "status":null,
	  "solution":null
}